{
  "project_info": {
    "project_number": "293937434751",
    "firebase_url": "https://ekoreport.firebaseio.com",
    "project_id": "ekoreport",
    "storage_bucket": "ekoreport.appspot.com"
  },
  "client": [
    {
      "client_info": {
        "mobilesdk_app_id": "1:293937434751:android:a0bf7322a8485ea3c5af4a",
        "android_client_info": {
          "package_name": "hr.fer.zemris.opp.ekoreport"
        }
      },
      "oauth_client": [
        {
          "client_id": "293937434751-1gjqjtg11ikb7e7poi3qhvqpve1la7ne.apps.googleusercontent.com",
          "client_type": 1,
          "android_info": {
            "package_name": "hr.fer.zemris.opp.ekoreport",
            "certificate_hash": "933a8d7aa8191cefe9df81a7bf86b81fec0975a1"
          }
        },
        {
          "client_id": "293937434751-v88bln9adrhb2nmepgjm48ucci2df9v8.apps.googleusercontent.com",
          "client_type": 3
        }
      ],
      "api_key": [
        {
          "current_key": "AIzaSyC1Y4JyUzkCS9vx-UEQTwnFH24XeZSUmN4"
        }
      ],
      "services": {
        "appinvite_service": {
          "other_platform_oauth_client": [
            {
              "client_id": "293937434751-v88bln9adrhb2nmepgjm48ucci2df9v8.apps.googleusercontent.com",
              "client_type": 3
            }
          ]
        }
      }
    }
  ],
  "configuration_version": "1"
}